{
	"name": "Departament",
	"columns":[
		{
			"name": "departament_id",
			"type": "number",
			"required": "required"
		},{
			"name": "name",
			"type": "text",
			"required": ""
		},{
			"name": "company_id",
			"type": "number",
			"required": "",
			"ref_key": "YES",
			"ref_table": "Company",
			"ref_row": "company_id"
		}
	]
}