[
	{
		"person_id": "1",
		"first_name": "vasya",
		"last_name": "pypkin",
		"middle_name": "batkovich",
		"email": "vasya@vasya",
		"phone_number": "000"
	},{
		"person_id": "2",
		"first_name": "Petya",
		"last_name": "pypkin",
		"middle_name": "batkovich",
		"email": "Petya@Petya",
		"phone_number": "000"
	}
]