{
	"name": "Person",
	"columns":[
		{
			"name": "person_id",
			"type": "text",
			"required": "required"
		},{
			"name": "first_name",
			"type": "text",
			"required": ""
		},{
			"name": "last_name",
			"type": "text",
			"required": ""
		},{
			"name": "middle_name",
			"type": "text",
			"required": ""
		},{
			"name": "email",
			"type": "email",
			"required": ""
		},{
			"name": "phone_number",
			"type": "number",
			"required": ""
		}
	]
}