[
	{
		"company_id": "1",
		"name": "vasya-corp",
		"describe": "null",
		"logo": "/images/1.png"
	},{
		"company_id": "2",
		"name": "vanya-corp",
		"describe": "null",
		"logo": "/images/2.png"
	}
]