{
	"name": "Company",
	"columns":[
		{
			"name": "company_id",
			"type": "number",
			"required": "required"
		},{
			"name": "name",
			"type": "text",
			"required": ""
		},{
			"name": "describe",
			"type": "text",
			"required": ""
		},{
			"name": "logo",
			"type": "text",
			"required": ""
		}
	]
}