{
	"name": "User",
	"columns":[
		{
			"name": "user_id",
			"type": "number",
			"required": "required"
		},{
			"name": "nick",
			"type": "text",
			"required": ""
		},{
			"name": "departament_id",
			"type": "number",
			"required": "",
			"ref_key": "YES",
			"ref_table": "Departament",
			"ref_row": "departament_id"
		},{
			"name": "person_id",
			"type": "number",
			"required": "",
			"ref_key": "YES",
			"ref_table": "Person",
			"ref_row": "person_id"
		},{
			"name": "position_id",
			"type": "number",
			"required": "",
			"ref_key": "YES",
			"ref_table": "Position",
			"ref_row": "position_id"
		},{
			"name": "super_user",
			"type": "text",
			"required": ""
		}
	]
}